3 The Tidyverse: Importing and Tidying Data – Odum 2026: Data Visualization in R
…
3.2 Load Packages

library(tidyverse)     # Core data import, transformation, and plotting tools
library(skimr)         # Compact dataset summaries
library(googlesheets4) # Read and write Google Sheets

3.3 Import Data

For much of this course, we will use a gapminder CSV stored in the repository.

gap_raw <- read_csv("Data/gapminder/gapminder_unfiltered.csv")
gap_raw

# A tibble: 3,313 × 6
   country     continent  year lifeExp      pop gdpPercap
   <chr>       <chr>     <dbl>   <dbl>    <dbl>     <dbl>
 1 Afghanistan Asia       1952    28.8  8425333      779.
 2 Afghanistan Asia       1957    30.3  9240934      821.
 3 Afghanistan Asia       1962    32.0 10267083      853.
 4 Afghanistan Asia       1967    34.0 11537966      836.
 5 Afghanistan Asia       1972    36.1 13079460      740.
 6 Afghanistan Asia       1977    38.4 14880372      786.
 7 Afghanistan Asia       1982    39.9 12881816      978.
 8 Afghanistan Asia       1987    40.8 13867957      852.
 9 Afghanistan Asia       1992    41.7 16317921      649.
10 Afghanistan Asia       1997    41.8 22227415      635.
# ℹ 3,303 more rows
…
Stata files are common in social science workflows, especially when data arrive from collaborators or archives. The haven package reads those files while preserving much of their original structure.

library(haven) # Import Stata and SPSS files
my_stata <- read_dta("myfile.dta")

3.4.4 SPSS

SPSS import works through the same haven package. The example below uses a built-in example file so the syntax can run without depending on an external dataset.

library(haven) # Import Stata and SPSS files
path <- system.file("examples", "iris.sav", package = "haven")
read_sav(path)

# A tibble: 150 × 5
   Sepal.Length Sepal.Width Petal.Length Petal.Width Species   
          <dbl>       <dbl>        <dbl>       <dbl> <dbl+lbl> 
 1          5.1         3.5          1.4         0.2 1 [setosa]
 2          4.9         3            1.4         0.2 1 [setosa]
 3          4.7         3.2          1.3         0.2 1 [setosa]
 4          4.6         3.1          1.5         0.2 1 [setosa]
 5          5           3.6          1.4         0.2 1 [setosa]
 6          5.4         3.9          1.7         0.4 1 [setosa]
 7          4.6         3.4          1.4         0.3 1 [setosa]
 8          5           3.4          1.5         0.2 1 [setosa]
 9          4.4         2.9          1.4         0.2 1 [setosa]
10          4.9         3.1          1.5         0.1 1 [setosa]
# ℹ 140 more rows
…
left_join() merges in new variables from another table

These verbs correspond closely to the tasks that appear in most empirical projects: decide which rows matter, decide which variables matter, construct more useful variables, aggregate to the right level, and merge in outside information when needed. Once those operations are legible, plotting becomes far less mysterious.

3.7.1 Filter Rows

filter() is used when only some observations belong in the next step of the analysis. It answers questions like: which years matter, which countries matter, or which regions should stay in the dataset?

Two comparison operators matter here. == tests exact equality, as in year == 2007. %in% tests whether a value belongs to a set, as in year %in% c(1952, 2007). The %in% form becomes especially useful when several values should be kept at once.

gap_raw |>
  filter(year %in% c(1952, 2007), continent %in% c("Americas", "Europe"))

# A tibble: 123 × 6
   country   continent  year lifeExp      pop gdpPercap
   <chr>     <chr>     <dbl>   <dbl>    <dbl>     <dbl>
 1 Albania   Europe     1952    55.2  1282697     1601.
 2 Albania   Europe     2007    76.4  3600523     5937.
 3 Argentina Americas   1952    62.5 17876956     5911.
 4 Argentina Americas   2007    75.3 40301927    12779.
 5 Aruba     Americas   2007    74.2    72194    27231.
 6 Austria   Europe     1952    66.8  6927772     6137.
 7 Austria   Europe     2007    79.8  8199783    36126.
 8 Bahamas   Americas   2007    73.5   305655    23949.
 9 Barbados  Americas   2007    77.3   280946    17023.
10 Belgium   Europe     1952    68    8730405     8343.
# ℹ 113 more rows

3.7.2 Select Columns

select() is used when only some variables are needed. That keeps the working dataset smaller and makes later code easier to read because irrelevant columns are removed.

gap_raw |>
  filter(year == 2007) |>
  select(country, continent, lifeExp, gdpPercap)

# A tibble: 183 × 4
   country     continent lifeExp gdpPercap
   <chr>       <chr>       <dbl>     <dbl>
 1 Afghanistan Asia         43.8      975.
 2 Albania     Europe       76.4     5937.
 3 Algeria     Africa       72.3     6223.
 4 Angola      Africa       42.7     4797.
 5 Argentina   Americas     75.3    12779.
 6 Armenia     FSU          72.0     4943.
 7 Aruba       Americas     74.2    27231.
 8 Australia   Oceania      81.2    34435.
 9 Austria     Europe       79.8    36126.
10 Azerbaijan  Asia         67.5     7709.
# ℹ 173 more rows

3.7.3 Mutate New Variables

mutate() creates new variables or rewrites existing ones. This is where raw variables often become more interpretable analysis variables, such as rounded values, logged values, rates, or categories.

gap_raw |>
  filter(year == 2007) |>
  mutate(
    gdp_pc_round = round(gdpPercap),
    log_gdp = log10(gdpPercap)
  ) |>
  select(country, gdpPercap, gdp_pc_round, log_gdp)

# A tibble: 183 × 4
   country     gdpPercap gdp_pc_round log_gdp
   <chr>           <dbl>        <dbl>   <dbl>
 1 Afghanistan      975.          975    2.99
 2 Albania         5937.         5937    3.77
 3 Algeria         6223.         6223    3.79
 4 Angola          4797.         4797    3.68
 5 Argentina      12779.        12779    4.11
 6 Armenia         4943.         4943    3.69
 7 Aruba          27231.        27231    4.44
 8 Australia      34435.        34435    4.54
 9 Austria        36126.        36126    4.56
10 Azerbaijan      7709.         7709    3.89
# ℹ 173 more rows
…
