6 From Question to Final Figure – Odum 2026: Data Visualization in R
…
The three plots tell the same basic story with different emphasis. Density overlays make the shift between years most obvious; boxplots make the central tendencies easiest to compare numerically; violin plots sit between the two. The choice usually depends on whether the reader cares more about shape, summary statistics, or both.

6.5 Step 2: Narrow To One Year

Here the focus shifts to 1995.

cig_1995 <- cigarettes_raw |>
  filter(year == 1995) |>
  select(state, year, packs, real_tax, income, real_price, taxs)

cig_1995

# A tibble: 48 × 7
   state  year packs real_tax    income real_price  taxs
   <chr> <dbl> <dbl>    <dbl>     <dbl>      <dbl> <dbl>
 1 AL     1995   101       27  83903280        104    42
 2 AR     1995   111       36  45995496        115    64
 3 AZ     1995    72       43  88870496        130    75
 4 CA     1995    57       40 771470144        138    75
 5 CO     1995    83       29  92946544        110    44
 6 CT     1995    79       49 104315120        143    86
 7 DE     1995   124       31  18237436        109    48
 8 FL     1995    93       38 333525344        123    69
 9 GA     1995    97       24 159800448        103    37
10 IA     1995    92       39  60170928        125    69
# ℹ 38 more rows
…
